<svg width="30" height="30" viewBox="0 0 30 30" fill="none"
    xmlns="http://www.w3.org/2000/svg">
    <circle cx="15" cy="15" r="15" fill="#4ED964"/>
    <path d="M21.0075 17.535C20.085 17.535 19.1925 17.385 18.36 17.115C18.0975 17.025 17.805 17.0925 17.6025 17.295L16.425 18.7725C14.3025 17.76 12.315 15.8475 11.2575 13.65L12.72 12.405C12.9225 12.195 12.9825 11.9025 12.9 11.64C12.6225 10.8075 12.48 9.915 12.48 8.9925C12.48 8.5875 12.1425 8.25 11.7375 8.25H9.1425C8.7375 8.25 8.25 8.43 8.25 8.9925C8.25 15.96 14.0475 21.75 21.0075 21.75C21.54 21.75 21.75 21.2775 21.75 20.865V18.2775C21.75 17.8725 21.4125 17.535 21.0075 17.535Z" fill="white"/>
</svg>
