<svg width="18" height="4" viewBox="0 0 18 4" fill="none"
    xmlns="http://www.w3.org/2000/svg">
    <ellipse cx="1.57578" cy="1.94118" rx="1.57578" ry="1.94118" fill="#9592A6"/>
    <ellipse cx="8.92929" cy="1.94118" rx="1.57578" ry="1.94118" fill="#9592A6"/>
    <ellipse cx="16.2828" cy="1.94118" rx="1.57578" ry="1.94118" fill="#9592A6"/>
</svg>
