<svg width="30" height="30" viewBox="0 0 30 30" fill="none"
    xmlns="http://www.w3.org/2000/svg">
    <circle cx="15" cy="15" r="15" fill="#323494"/>
    <path d="M22 16H16V22H14V16H8V14H14V8H16V14H22V16Z" fill="white"/>
</svg>
